<?xml version="1.0" encoding="UTF-8"?>
<svg width="1479px" height="1030px" viewBox="0 0 1479 1030" version="1.1" xmlns="http://www.w3.org/2000/svg" xmlns:xlink="http://www.w3.org/1999/xlink">
    <!-- Generator: Sketch 63.1 (92452) - https://sketch.com -->
    <title>logo</title>
    <desc>Created with Sketch.</desc>
    <g id="Page-1" stroke="none" stroke-width="1" fill="none" fill-rule="evenodd">
        <g id="logo" fill="#FFFFFF" fill-rule="nonzero">
            <path d="M897.755,856.079 C923.226,856.079 943.518,863.876 958.629,879.47 C973.741,895.065 981.297,916.006 981.297,942.294 C981.297,969.176 973.741,990.377 958.629,1005.897 C943.518,1021.417 922.855,1029.177 896.641,1029.177 C871.616,1029.177 851.603,1021.306 836.602,1005.563 C821.602,989.82 814.102,968.841 814.102,942.628 C814.102,916.117 821.639,895.065 836.714,879.47 C851.789,863.876 872.136,856.079 897.755,856.079 Z M156.505,860.2 L156.505,882.812 L97.469,882.812 L97.469,1025.056 L63.049,1025.056 L63.049,882.812 L4.013,882.812 L4.013,860.2 L156.505,860.2 Z M206.933,860.2 L206.933,927.145 L275.103,927.145 L275.103,860.2 L309.411,860.2 L309.411,1025.056 L275.103,1025.056 L275.103,949.868 L206.933,949.868 L206.933,1025.056 L172.625,1025.056 L172.625,860.2 L206.933,860.2 Z M446.723,860.2 L446.723,882.812 L377.995,882.812 L377.995,928.816 L434.358,928.816 L434.358,950.871 L377.995,950.871 L377.995,1001.664 L451.958,1001.664 L451.958,1025.056 L343.688,1025.056 L343.688,860.2 L446.723,860.2 Z M535.469,860.2 C568.96,860.2 585.705,873.827 585.705,901.08 C585.705,911.253 582.865,920.517 577.184,928.871 C571.503,937.226 563.687,943.63 553.736,948.086 L607.649,1025.056 L565.878,1025.056 L524.998,957.665 L506.062,957.665 L506.062,1025.056 L473.759,1025.056 L473.759,860.2 L535.469,860.2 Z M669.661,860.2 L709.316,976.156 L750.196,860.2 L790.073,860.2 L790.073,1025.056 L758.438,1025.056 L758.438,900.634 L718.227,1014.028 L690.602,1014.028 L651.171,898.963 L651.171,1025.056 L624.215,1025.056 L624.215,860.2 L669.661,860.2 Z M1039.522,860.2 L1039.522,1001.664 L1113.819,1001.664 L1113.819,1025.056 L1005.214,1025.056 L1005.214,860.2 L1039.522,860.2 Z M1165.25,860.2 L1165.25,1025.056 L1130.942,1025.056 L1130.942,860.2 L1165.25,860.2 Z M1229.824,860.2 L1306.237,972.814 L1306.237,860.2 L1333.75,860.2 L1333.75,1025.056 L1303.007,1025.056 L1227.151,912.441 L1227.151,1025.056 L1199.638,1025.056 L1199.638,860.2 L1229.824,860.2 Z M1471.062,860.2 L1471.062,882.812 L1402.335,882.812 L1402.335,928.816 L1458.698,928.816 L1458.698,950.871 L1402.335,950.871 L1402.335,1001.664 L1476.297,1001.664 L1476.297,1025.056 L1368.027,1025.056 L1368.027,860.2 L1471.062,860.2 Z M897.755,878.691 C883.423,878.691 871.969,884.483 863.392,896.067 C854.815,907.652 850.526,923.135 850.526,942.517 C850.526,961.75 854.796,977.214 863.336,988.91 C871.876,1000.606 883.126,1006.454 897.087,1006.454 C911.79,1006.454 923.43,1000.68 932.007,989.133 C940.584,977.586 944.873,961.935 944.873,942.182 C944.873,923.023 940.566,907.652 931.952,896.067 C923.338,884.483 911.939,878.691 897.755,878.691 Z M517.98,882.812 L506.062,882.812 L506.062,935.053 L513.97,935.053 C538.847,935.053 551.286,924.991 551.286,904.867 C551.286,890.164 540.184,882.812 517.98,882.812 Z M1478.802,750.084 L1478.802,817.825 L-2.27373675e-13,817.825 L-2.27373675e-13,750.084 L1478.802,750.084 Z M1478.802,652.643 L1478.802,720.384 L-2.27373675e-13,720.384 L-2.27373675e-13,652.643 L1478.802,652.643 Z M1478.802,555.203 L1478.802,622.943 L-2.27373675e-13,622.943 L-2.27373675e-13,555.203 L1478.802,555.203 Z M1478.802,-2.27373675e-13 L1478.802,525.503 L-2.27373675e-13,525.503 L-2.27373675e-13,-2.27373675e-13 L1478.802,-2.27373675e-13 Z" id="Combined-Shape"></path>
        </g>
    </g>
</svg>